<mxfile host="Electron" modified="2021-04-17T18:59:15.192Z" agent="5.0 (X11; Linux x86_64) AppleWebKit/537.36 (KHTML, like Gecko) draw.io/13.9.9 Chrome/85.0.4183.121 Electron/10.1.5 Safari/537.36" etag="utsbVBr6GdO94XnCJFSQ" compressed="false" version="13.9.9" type="device">
  <diagram id="n-K-Z6leGpbC5muzh2Yq" name="Page-1">
    <mxGraphModel dx="569" dy="337" grid="1" gridSize="10" guides="1" tooltips="1" connect="1" arrows="1" fold="1" page="1" pageScale="1" pageWidth="850" pageHeight="1100" math="0" shadow="0">
      <root>
        <mxCell id="0" />
        <mxCell id="1" parent="0" />
        <mxCell id="mb1jw5yVgutSFJHkQF5r-1" value="" style="rounded=0;whiteSpace=wrap;html=1;fillColor=#D5E8D4;" parent="1" vertex="1">
          <mxGeometry x="120" y="360" width="140" height="15" as="geometry" />
        </mxCell>
        <mxCell id="mb1jw5yVgutSFJHkQF5r-3" value="&lt;font style=&quot;font-size: 12px&quot; face=&quot;Courier New&quot;&gt;05:4A:33:78:01:FF&lt;/font&gt;" style="text;html=1;strokeColor=none;fillColor=none;align=center;verticalAlign=middle;whiteSpace=wrap;rounded=0;fontSize=12;" parent="1" vertex="1">
          <mxGeometry x="120" y="360" width="140" height="15" as="geometry" />
        </mxCell>
        <mxCell id="mb1jw5yVgutSFJHkQF5r-10" value="&lt;font face=&quot;Garamond&quot;&gt;&lt;b&gt;SEARCHED KEY&lt;/b&gt;&lt;/font&gt;" style="text;html=1;strokeColor=none;fillColor=none;align=center;verticalAlign=middle;whiteSpace=wrap;rounded=0;fontSize=12;" parent="1" vertex="1">
          <mxGeometry x="140" y="340" width="100" height="20" as="geometry" />
        </mxCell>
        <mxCell id="mb1jw5yVgutSFJHkQF5r-22" value="&lt;font face=&quot;Garamond&quot;&gt;&lt;b&gt;SORTED KEY-VALUE PAIRS&lt;/b&gt;&lt;/font&gt;" style="text;html=1;strokeColor=none;fillColor=none;align=center;verticalAlign=middle;whiteSpace=wrap;rounded=0;fontSize=12;" parent="1" vertex="1">
          <mxGeometry x="370" y="230" width="170" height="20" as="geometry" />
        </mxCell>
        <mxCell id="mb1jw5yVgutSFJHkQF5r-57" value="" style="rounded=0;whiteSpace=wrap;html=1;fillColor=#CCE5FF;" parent="1" vertex="1">
          <mxGeometry x="344" y="285" width="140" height="15" as="geometry" />
        </mxCell>
        <mxCell id="mb1jw5yVgutSFJHkQF5r-58" value="&lt;font style=&quot;font-size: 12px&quot; face=&quot;Courier New&quot;&gt;05:0C:A1:89:02:DE&lt;/font&gt;" style="text;html=1;strokeColor=none;fillColor=none;align=center;verticalAlign=middle;whiteSpace=wrap;rounded=0;fontSize=12;" parent="1" vertex="1">
          <mxGeometry x="344" y="285" width="140" height="15" as="geometry" />
        </mxCell>
        <mxCell id="mb1jw5yVgutSFJHkQF5r-74" value="" style="rounded=0;whiteSpace=wrap;html=1;fillColor=#CCE5FF;" parent="1" vertex="1">
          <mxGeometry x="344" y="300" width="140" height="15" as="geometry" />
        </mxCell>
        <mxCell id="mb1jw5yVgutSFJHkQF5r-75" value="&lt;font style=&quot;font-size: 12px&quot; face=&quot;Courier New&quot;&gt;05:27:DE:AD:4E:45&lt;/font&gt;" style="text;html=1;strokeColor=none;fillColor=none;align=center;verticalAlign=middle;whiteSpace=wrap;rounded=0;fontSize=12;" parent="1" vertex="1">
          <mxGeometry x="344" y="300" width="140" height="15" as="geometry" />
        </mxCell>
        <mxCell id="mb1jw5yVgutSFJHkQF5r-78" value="" style="rounded=0;whiteSpace=wrap;html=1;fillColor=#CCE5FF;" parent="1" vertex="1">
          <mxGeometry x="344" y="345" width="140" height="15" as="geometry" />
        </mxCell>
        <mxCell id="mb1jw5yVgutSFJHkQF5r-79" value="&lt;font style=&quot;font-size: 12px&quot; face=&quot;Courier New&quot;&gt;06:6F:AB:84:71:E5&lt;/font&gt;" style="text;html=1;strokeColor=none;fillColor=none;align=center;verticalAlign=middle;whiteSpace=wrap;rounded=0;fontSize=12;" parent="1" vertex="1">
          <mxGeometry x="344" y="345" width="140" height="15" as="geometry" />
        </mxCell>
        <mxCell id="mb1jw5yVgutSFJHkQF5r-82" value="" style="rounded=0;whiteSpace=wrap;html=1;fillColor=none;" parent="1" vertex="1">
          <mxGeometry x="485" y="285" width="80" height="15" as="geometry" />
        </mxCell>
        <mxCell id="mb1jw5yVgutSFJHkQF5r-83" value="&lt;font style=&quot;font-size: 12px&quot; face=&quot;Courier New&quot;&gt;10000010&lt;/font&gt;" style="text;html=1;strokeColor=none;align=center;verticalAlign=middle;whiteSpace=wrap;rounded=0;fontSize=12;" parent="1" vertex="1">
          <mxGeometry x="484" y="285" width="80" height="15" as="geometry" />
        </mxCell>
        <mxCell id="mb1jw5yVgutSFJHkQF5r-84" value="" style="rounded=0;whiteSpace=wrap;html=1;fillColor=none;" parent="1" vertex="1">
          <mxGeometry x="485" y="345" width="80" height="15" as="geometry" />
        </mxCell>
        <mxCell id="mb1jw5yVgutSFJHkQF5r-85" value="&lt;font style=&quot;font-size: 12px&quot; face=&quot;Courier New&quot;&gt;01010110&lt;/font&gt;" style="text;html=1;strokeColor=none;align=center;verticalAlign=middle;whiteSpace=wrap;rounded=0;fontSize=12;" parent="1" vertex="1">
          <mxGeometry x="485" y="345" width="80" height="15" as="geometry" />
        </mxCell>
        <mxCell id="mb1jw5yVgutSFJHkQF5r-86" value="" style="rounded=0;whiteSpace=wrap;html=1;fillColor=none;" parent="1" vertex="1">
          <mxGeometry x="485" y="300" width="80" height="15" as="geometry" />
        </mxCell>
        <mxCell id="mb1jw5yVgutSFJHkQF5r-87" value="&lt;font style=&quot;font-size: 12px&quot; face=&quot;Courier New&quot;&gt;00001000&lt;/font&gt;" style="text;html=1;strokeColor=none;align=center;verticalAlign=middle;whiteSpace=wrap;rounded=0;fontSize=12;" parent="1" vertex="1">
          <mxGeometry x="484" y="300" width="80" height="15" as="geometry" />
        </mxCell>
        <mxCell id="uhHtntZ3aapECRQSG8ko-25" value="" style="rounded=0;whiteSpace=wrap;html=1;fillColor=#D5E8D4;" vertex="1" parent="1">
          <mxGeometry x="344" y="330" width="140" height="15" as="geometry" />
        </mxCell>
        <mxCell id="uhHtntZ3aapECRQSG8ko-26" value="&lt;span style=&quot;font-family: &amp;#34;courier new&amp;#34;&quot;&gt;05:4A:33:78:01:FF&lt;/span&gt;" style="text;html=1;strokeColor=none;fillColor=none;align=center;verticalAlign=middle;whiteSpace=wrap;rounded=0;fontSize=12;" vertex="1" parent="1">
          <mxGeometry x="344" y="330" width="140" height="15" as="geometry" />
        </mxCell>
        <mxCell id="uhHtntZ3aapECRQSG8ko-27" value="" style="rounded=0;whiteSpace=wrap;html=1;fillColor=none;" vertex="1" parent="1">
          <mxGeometry x="485" y="330" width="80" height="15" as="geometry" />
        </mxCell>
        <mxCell id="uhHtntZ3aapECRQSG8ko-28" value="&lt;font style=&quot;font-size: 12px&quot; face=&quot;Courier New&quot;&gt;10011111&lt;/font&gt;" style="text;html=1;strokeColor=none;align=center;verticalAlign=middle;whiteSpace=wrap;rounded=0;fontSize=12;" vertex="1" parent="1">
          <mxGeometry x="484" y="330" width="80" height="15" as="geometry" />
        </mxCell>
        <mxCell id="uhHtntZ3aapECRQSG8ko-29" value="" style="rounded=0;whiteSpace=wrap;html=1;fillColor=#CCE5FF;" vertex="1" parent="1">
          <mxGeometry x="344" y="315" width="140" height="15" as="geometry" />
        </mxCell>
        <mxCell id="uhHtntZ3aapECRQSG8ko-30" value="&lt;font style=&quot;font-size: 12px&quot; face=&quot;Courier New&quot;&gt;05:4A:33:78:01:FE&lt;/font&gt;" style="text;html=1;strokeColor=none;fillColor=none;align=center;verticalAlign=middle;whiteSpace=wrap;rounded=0;fontSize=12;" vertex="1" parent="1">
          <mxGeometry x="344" y="315" width="140" height="15" as="geometry" />
        </mxCell>
        <mxCell id="uhHtntZ3aapECRQSG8ko-31" value="" style="rounded=0;whiteSpace=wrap;html=1;fillColor=none;" vertex="1" parent="1">
          <mxGeometry x="485" y="315" width="80" height="15" as="geometry" />
        </mxCell>
        <mxCell id="uhHtntZ3aapECRQSG8ko-32" value="&lt;font style=&quot;font-size: 12px&quot; face=&quot;Courier New&quot;&gt;10010001&lt;/font&gt;" style="text;html=1;strokeColor=none;align=center;verticalAlign=middle;whiteSpace=wrap;rounded=0;fontSize=12;" vertex="1" parent="1">
          <mxGeometry x="484" y="315" width="80" height="15" as="geometry" />
        </mxCell>
        <mxCell id="uhHtntZ3aapECRQSG8ko-33" value="" style="rounded=0;whiteSpace=wrap;html=1;fillColor=#CCE5FF;" vertex="1" parent="1">
          <mxGeometry x="344" y="375" width="140" height="15" as="geometry" />
        </mxCell>
        <mxCell id="uhHtntZ3aapECRQSG8ko-34" value="&lt;font style=&quot;font-size: 12px&quot; face=&quot;Courier New&quot;&gt;45:4A:33:78:01:FF&lt;/font&gt;" style="text;html=1;strokeColor=none;fillColor=none;align=center;verticalAlign=middle;whiteSpace=wrap;rounded=0;fontSize=12;" vertex="1" parent="1">
          <mxGeometry x="344" y="375" width="140" height="15" as="geometry" />
        </mxCell>
        <mxCell id="uhHtntZ3aapECRQSG8ko-35" value="" style="rounded=0;whiteSpace=wrap;html=1;fillColor=#CCE5FF;" vertex="1" parent="1">
          <mxGeometry x="344" y="390" width="140" height="15" as="geometry" />
        </mxCell>
        <mxCell id="uhHtntZ3aapECRQSG8ko-36" value="&lt;font style=&quot;font-size: 12px&quot; face=&quot;Courier New&quot;&gt;67:67:D2:47:B1:8F&lt;/font&gt;" style="text;html=1;strokeColor=none;fillColor=none;align=center;verticalAlign=middle;whiteSpace=wrap;rounded=0;fontSize=12;" vertex="1" parent="1">
          <mxGeometry x="344" y="390" width="140" height="15" as="geometry" />
        </mxCell>
        <mxCell id="uhHtntZ3aapECRQSG8ko-37" value="" style="rounded=0;whiteSpace=wrap;html=1;fillColor=#CCE5FF;" vertex="1" parent="1">
          <mxGeometry x="344" y="360" width="140" height="15" as="geometry" />
        </mxCell>
        <mxCell id="uhHtntZ3aapECRQSG8ko-38" value="&lt;font style=&quot;font-size: 12px&quot; face=&quot;Courier New&quot;&gt;3E:74:BE:5A:49:01&lt;/font&gt;" style="text;html=1;strokeColor=none;fillColor=none;align=center;verticalAlign=middle;whiteSpace=wrap;rounded=0;fontSize=12;" vertex="1" parent="1">
          <mxGeometry x="344" y="360" width="140" height="15" as="geometry" />
        </mxCell>
        <mxCell id="uhHtntZ3aapECRQSG8ko-39" value="" style="rounded=0;whiteSpace=wrap;html=1;fillColor=#CCE5FF;" vertex="1" parent="1">
          <mxGeometry x="344" y="435" width="140" height="15" as="geometry" />
        </mxCell>
        <mxCell id="uhHtntZ3aapECRQSG8ko-40" value="&lt;font style=&quot;font-size: 12px&quot; face=&quot;Courier New&quot;&gt;B8:D2:44:FA:6E:A5&lt;/font&gt;" style="text;html=1;strokeColor=none;fillColor=none;align=center;verticalAlign=middle;whiteSpace=wrap;rounded=0;fontSize=12;" vertex="1" parent="1">
          <mxGeometry x="344" y="435" width="140" height="15" as="geometry" />
        </mxCell>
        <mxCell id="uhHtntZ3aapECRQSG8ko-41" value="" style="rounded=0;whiteSpace=wrap;html=1;fillColor=none;" vertex="1" parent="1">
          <mxGeometry x="485" y="360" width="80" height="15" as="geometry" />
        </mxCell>
        <mxCell id="uhHtntZ3aapECRQSG8ko-42" value="&lt;font style=&quot;font-size: 12px&quot; face=&quot;Courier New&quot;&gt;10011111&lt;/font&gt;" style="text;html=1;strokeColor=none;align=center;verticalAlign=middle;whiteSpace=wrap;rounded=0;fontSize=12;" vertex="1" parent="1">
          <mxGeometry x="484" y="360" width="80" height="15" as="geometry" />
        </mxCell>
        <mxCell id="uhHtntZ3aapECRQSG8ko-43" value="" style="rounded=0;whiteSpace=wrap;html=1;fillColor=none;" vertex="1" parent="1">
          <mxGeometry x="485" y="375" width="80" height="15" as="geometry" />
        </mxCell>
        <mxCell id="uhHtntZ3aapECRQSG8ko-44" value="&lt;font style=&quot;font-size: 12px&quot; face=&quot;Courier New&quot;&gt;10010010&lt;/font&gt;" style="text;html=1;strokeColor=none;align=center;verticalAlign=middle;whiteSpace=wrap;rounded=0;fontSize=12;" vertex="1" parent="1">
          <mxGeometry x="484" y="375" width="80" height="15" as="geometry" />
        </mxCell>
        <mxCell id="uhHtntZ3aapECRQSG8ko-45" value="" style="rounded=0;whiteSpace=wrap;html=1;fillColor=none;" vertex="1" parent="1">
          <mxGeometry x="485" y="435" width="80" height="15" as="geometry" />
        </mxCell>
        <mxCell id="uhHtntZ3aapECRQSG8ko-46" value="&lt;font style=&quot;font-size: 12px&quot; face=&quot;Courier New&quot;&gt;01010000&lt;/font&gt;" style="text;html=1;strokeColor=none;align=center;verticalAlign=middle;whiteSpace=wrap;rounded=0;fontSize=12;" vertex="1" parent="1">
          <mxGeometry x="485" y="435" width="80" height="15" as="geometry" />
        </mxCell>
        <mxCell id="uhHtntZ3aapECRQSG8ko-47" value="" style="rounded=0;whiteSpace=wrap;html=1;fillColor=none;" vertex="1" parent="1">
          <mxGeometry x="485" y="390" width="80" height="15" as="geometry" />
        </mxCell>
        <mxCell id="uhHtntZ3aapECRQSG8ko-48" value="&lt;font style=&quot;font-size: 12px&quot; face=&quot;Courier New&quot;&gt;00001000&lt;/font&gt;" style="text;html=1;strokeColor=none;align=center;verticalAlign=middle;whiteSpace=wrap;rounded=0;fontSize=12;" vertex="1" parent="1">
          <mxGeometry x="484" y="390" width="80" height="15" as="geometry" />
        </mxCell>
        <mxCell id="uhHtntZ3aapECRQSG8ko-49" value="" style="rounded=0;whiteSpace=wrap;html=1;fillColor=#CCE5FF;" vertex="1" parent="1">
          <mxGeometry x="344" y="420" width="140" height="15" as="geometry" />
        </mxCell>
        <mxCell id="uhHtntZ3aapECRQSG8ko-50" value="&lt;font style=&quot;font-size: 12px&quot; face=&quot;Courier New&quot;&gt;A3:48:99:1B:40:56&lt;/font&gt;" style="text;html=1;strokeColor=none;fillColor=none;align=center;verticalAlign=middle;whiteSpace=wrap;rounded=0;fontSize=12;" vertex="1" parent="1">
          <mxGeometry x="344" y="420" width="140" height="15" as="geometry" />
        </mxCell>
        <mxCell id="uhHtntZ3aapECRQSG8ko-51" value="" style="rounded=0;whiteSpace=wrap;html=1;fillColor=none;" vertex="1" parent="1">
          <mxGeometry x="485" y="420" width="80" height="15" as="geometry" />
        </mxCell>
        <mxCell id="uhHtntZ3aapECRQSG8ko-52" value="&lt;font style=&quot;font-size: 12px&quot; face=&quot;Courier New&quot;&gt;10011101&lt;/font&gt;" style="text;html=1;strokeColor=none;align=center;verticalAlign=middle;whiteSpace=wrap;rounded=0;fontSize=12;" vertex="1" parent="1">
          <mxGeometry x="484" y="420" width="80" height="15" as="geometry" />
        </mxCell>
        <mxCell id="uhHtntZ3aapECRQSG8ko-53" value="" style="rounded=0;whiteSpace=wrap;html=1;fillColor=#CCE5FF;" vertex="1" parent="1">
          <mxGeometry x="344" y="405" width="140" height="15" as="geometry" />
        </mxCell>
        <mxCell id="uhHtntZ3aapECRQSG8ko-54" value="&lt;font style=&quot;font-size: 12px&quot; face=&quot;Courier New&quot;&gt;67:A4:AF:6C:56:F3&lt;/font&gt;" style="text;html=1;strokeColor=none;fillColor=none;align=center;verticalAlign=middle;whiteSpace=wrap;rounded=0;fontSize=12;" vertex="1" parent="1">
          <mxGeometry x="344" y="405" width="140" height="15" as="geometry" />
        </mxCell>
        <mxCell id="uhHtntZ3aapECRQSG8ko-55" value="" style="rounded=0;whiteSpace=wrap;html=1;fillColor=none;" vertex="1" parent="1">
          <mxGeometry x="485" y="405" width="80" height="15" as="geometry" />
        </mxCell>
        <mxCell id="uhHtntZ3aapECRQSG8ko-56" value="&lt;font style=&quot;font-size: 12px&quot; face=&quot;Courier New&quot;&gt;10011011&lt;/font&gt;" style="text;html=1;strokeColor=none;align=center;verticalAlign=middle;whiteSpace=wrap;rounded=0;fontSize=12;" vertex="1" parent="1">
          <mxGeometry x="484" y="405" width="80" height="15" as="geometry" />
        </mxCell>
        <mxCell id="uhHtntZ3aapECRQSG8ko-61" value="" style="endArrow=classic;html=1;exitX=1;exitY=0.5;exitDx=0;exitDy=0;entryX=0;entryY=0.5;entryDx=0;entryDy=0;" edge="1" parent="1" source="mb1jw5yVgutSFJHkQF5r-3" target="uhHtntZ3aapECRQSG8ko-38">
          <mxGeometry width="50" height="50" relative="1" as="geometry">
            <mxPoint x="290" y="380" as="sourcePoint" />
            <mxPoint x="340" y="367" as="targetPoint" />
          </mxGeometry>
        </mxCell>
        <mxCell id="uhHtntZ3aapECRQSG8ko-62" value="" style="endArrow=classic;html=1;curved=1;entryX=0;entryY=0.5;entryDx=0;entryDy=0;" edge="1" parent="1" target="mb1jw5yVgutSFJHkQF5r-75">
          <mxGeometry width="50" height="50" relative="1" as="geometry">
            <mxPoint x="337" y="368" as="sourcePoint" />
            <mxPoint x="330" y="324" as="targetPoint" />
            <Array as="points">
              <mxPoint x="240" y="340" />
            </Array>
          </mxGeometry>
        </mxCell>
        <mxCell id="uhHtntZ3aapECRQSG8ko-63" value="" style="rounded=0;whiteSpace=wrap;html=1;fillColor=#CCE5FF;" vertex="1" parent="1">
          <mxGeometry x="344" y="255" width="140" height="15" as="geometry" />
        </mxCell>
        <mxCell id="uhHtntZ3aapECRQSG8ko-64" value="&lt;font style=&quot;font-size: 12px&quot; face=&quot;Courier New&quot;&gt;01:3F:21:4C:EF:13&lt;/font&gt;" style="text;html=1;strokeColor=none;fillColor=none;align=center;verticalAlign=middle;whiteSpace=wrap;rounded=0;fontSize=12;" vertex="1" parent="1">
          <mxGeometry x="344" y="255" width="140" height="15" as="geometry" />
        </mxCell>
        <mxCell id="uhHtntZ3aapECRQSG8ko-65" value="" style="rounded=0;whiteSpace=wrap;html=1;fillColor=#CCE5FF;" vertex="1" parent="1">
          <mxGeometry x="344" y="270" width="140" height="15" as="geometry" />
        </mxCell>
        <mxCell id="uhHtntZ3aapECRQSG8ko-66" value="&lt;font style=&quot;font-size: 12px&quot; face=&quot;Courier New&quot;&gt;01:87:DE:83:BE:EF&lt;/font&gt;" style="text;html=1;strokeColor=none;fillColor=none;align=center;verticalAlign=middle;whiteSpace=wrap;rounded=0;fontSize=12;" vertex="1" parent="1">
          <mxGeometry x="344" y="270" width="140" height="15" as="geometry" />
        </mxCell>
        <mxCell id="uhHtntZ3aapECRQSG8ko-67" value="" style="rounded=0;whiteSpace=wrap;html=1;fillColor=none;" vertex="1" parent="1">
          <mxGeometry x="485" y="255" width="80" height="15" as="geometry" />
        </mxCell>
        <mxCell id="uhHtntZ3aapECRQSG8ko-68" value="&lt;font style=&quot;font-size: 12px&quot; face=&quot;Courier New&quot;&gt;10110010&lt;/font&gt;" style="text;html=1;strokeColor=none;align=center;verticalAlign=middle;whiteSpace=wrap;rounded=0;fontSize=12;" vertex="1" parent="1">
          <mxGeometry x="484" y="255" width="80" height="15" as="geometry" />
        </mxCell>
        <mxCell id="uhHtntZ3aapECRQSG8ko-69" value="" style="rounded=0;whiteSpace=wrap;html=1;fillColor=none;" vertex="1" parent="1">
          <mxGeometry x="485" y="270" width="80" height="15" as="geometry" />
        </mxCell>
        <mxCell id="uhHtntZ3aapECRQSG8ko-70" value="&lt;font style=&quot;font-size: 12px&quot; face=&quot;Courier New&quot;&gt;01001000&lt;/font&gt;" style="text;html=1;strokeColor=none;align=center;verticalAlign=middle;whiteSpace=wrap;rounded=0;fontSize=12;" vertex="1" parent="1">
          <mxGeometry x="484" y="270" width="80" height="15" as="geometry" />
        </mxCell>
        <mxCell id="uhHtntZ3aapECRQSG8ko-71" value="" style="rounded=0;whiteSpace=wrap;html=1;fillColor=#CCE5FF;" vertex="1" parent="1">
          <mxGeometry x="344" y="465" width="140" height="15" as="geometry" />
        </mxCell>
        <mxCell id="uhHtntZ3aapECRQSG8ko-72" value="&lt;font style=&quot;font-size: 12px&quot; face=&quot;Courier New&quot;&gt;C8:D2:44:0A:6E:49&lt;/font&gt;" style="text;html=1;strokeColor=none;fillColor=none;align=center;verticalAlign=middle;whiteSpace=wrap;rounded=0;fontSize=12;" vertex="1" parent="1">
          <mxGeometry x="344" y="465" width="140" height="15" as="geometry" />
        </mxCell>
        <mxCell id="uhHtntZ3aapECRQSG8ko-73" value="" style="rounded=0;whiteSpace=wrap;html=1;fillColor=none;" vertex="1" parent="1">
          <mxGeometry x="485" y="465" width="80" height="15" as="geometry" />
        </mxCell>
        <mxCell id="uhHtntZ3aapECRQSG8ko-74" value="&lt;font style=&quot;font-size: 12px&quot; face=&quot;Courier New&quot;&gt;01010111&lt;/font&gt;" style="text;html=1;strokeColor=none;align=center;verticalAlign=middle;whiteSpace=wrap;rounded=0;fontSize=12;" vertex="1" parent="1">
          <mxGeometry x="485" y="465" width="80" height="15" as="geometry" />
        </mxCell>
        <mxCell id="uhHtntZ3aapECRQSG8ko-75" value="" style="rounded=0;whiteSpace=wrap;html=1;fillColor=#CCE5FF;" vertex="1" parent="1">
          <mxGeometry x="344" y="450" width="140" height="15" as="geometry" />
        </mxCell>
        <mxCell id="uhHtntZ3aapECRQSG8ko-76" value="&lt;font style=&quot;font-size: 12px&quot; face=&quot;Courier New&quot;&gt;B9:04:6F:6C:00:F1&lt;/font&gt;" style="text;html=1;strokeColor=none;fillColor=none;align=center;verticalAlign=middle;whiteSpace=wrap;rounded=0;fontSize=12;" vertex="1" parent="1">
          <mxGeometry x="344" y="450" width="140" height="15" as="geometry" />
        </mxCell>
        <mxCell id="uhHtntZ3aapECRQSG8ko-77" value="" style="rounded=0;whiteSpace=wrap;html=1;fillColor=none;" vertex="1" parent="1">
          <mxGeometry x="485" y="450" width="80" height="15" as="geometry" />
        </mxCell>
        <mxCell id="uhHtntZ3aapECRQSG8ko-78" value="&lt;font style=&quot;font-size: 12px&quot; face=&quot;Courier New&quot;&gt;10000001&lt;/font&gt;" style="text;html=1;strokeColor=none;align=center;verticalAlign=middle;whiteSpace=wrap;rounded=0;fontSize=12;" vertex="1" parent="1">
          <mxGeometry x="484" y="450" width="80" height="15" as="geometry" />
        </mxCell>
        <mxCell id="uhHtntZ3aapECRQSG8ko-80" value="" style="curved=1;endArrow=classic;html=1;" edge="1" parent="1">
          <mxGeometry width="50" height="50" relative="1" as="geometry">
            <mxPoint x="338" y="310" as="sourcePoint" />
            <mxPoint x="343" y="338" as="targetPoint" />
            <Array as="points">
              <mxPoint x="319" y="328" />
            </Array>
          </mxGeometry>
        </mxCell>
        <mxCell id="uhHtntZ3aapECRQSG8ko-81" value="&lt;font face=&quot;Garamond&quot; style=&quot;font-size: 9px&quot;&gt;LOWER&lt;/font&gt;" style="text;html=1;strokeColor=none;fillColor=none;align=center;verticalAlign=middle;whiteSpace=wrap;rounded=0;" vertex="1" parent="1">
          <mxGeometry x="304" y="364.5" width="40" height="20" as="geometry" />
        </mxCell>
        <mxCell id="uhHtntZ3aapECRQSG8ko-82" value="&lt;font face=&quot;Garamond&quot; style=&quot;font-size: 9px&quot;&gt;HIGHER&lt;/font&gt;" style="text;html=1;strokeColor=none;fillColor=none;align=center;verticalAlign=middle;whiteSpace=wrap;rounded=0;" vertex="1" parent="1">
          <mxGeometry x="304" y="289" width="40" height="20" as="geometry" />
        </mxCell>
        <mxCell id="uhHtntZ3aapECRQSG8ko-83" value="&lt;font face=&quot;Garamond&quot; style=&quot;font-size: 9px&quot;&gt;&lt;b&gt;MATCH&lt;/b&gt;&lt;/font&gt;" style="text;html=1;strokeColor=none;fillColor=none;align=center;verticalAlign=middle;whiteSpace=wrap;rounded=0;" vertex="1" parent="1">
          <mxGeometry x="305" y="332" width="40" height="20" as="geometry" />
        </mxCell>
      </root>
    </mxGraphModel>
  </diagram>
</mxfile>
