<mxfile host="Electron" modified="2021-05-30T09:30:41.101Z" agent="5.0 (X11; Linux x86_64) AppleWebKit/537.36 (KHTML, like Gecko) draw.io/13.9.9 Chrome/85.0.4183.121 Electron/10.1.5 Safari/537.36" etag="oBsOPNdUBEoKGNY_96fW" compressed="false" version="13.9.9" type="device">
  <diagram id="n-K-Z6leGpbC5muzh2Yq" name="Page-1">
    <mxGraphModel dx="2844" dy="1686" grid="1" gridSize="10" guides="1" tooltips="1" connect="1" arrows="1" fold="1" page="1" pageScale="1" pageWidth="850" pageHeight="1100" math="0" shadow="0">
      <root>
        <mxCell id="0" />
        <mxCell id="1" parent="0" />
        <mxCell id="Ay7jssowPQZ8ljbJawrN-74" value="" style="rounded=1;whiteSpace=wrap;html=1;dashed=1;fontFamily=Garamond;fontSize=20;fillColor=#f5f5f5;strokeColor=#666666;fontColor=#333333;" parent="1" vertex="1">
          <mxGeometry x="895" y="758" width="130" height="552" as="geometry" />
        </mxCell>
        <mxCell id="Ay7jssowPQZ8ljbJawrN-83" value="" style="rounded=1;whiteSpace=wrap;html=1;fontFamily=Garamond;fontSize=20;" parent="1" vertex="1">
          <mxGeometry x="900" y="968" width="120" height="132" as="geometry" />
        </mxCell>
        <mxCell id="Ay7jssowPQZ8ljbJawrN-72" value="" style="rounded=1;whiteSpace=wrap;html=1;dashed=1;fontFamily=Garamond;fontSize=20;fillColor=#f5f5f5;strokeColor=#666666;fontColor=#333333;" parent="1" vertex="1">
          <mxGeometry x="85" y="758" width="800" height="552" as="geometry" />
        </mxCell>
        <mxCell id="Ay7jssowPQZ8ljbJawrN-23" value="" style="rounded=1;whiteSpace=wrap;html=1;strokeColor=#6c8ebf;dashed=1;fillColor=#DDEBFF;" parent="1" vertex="1">
          <mxGeometry x="280" y="898" width="560" height="260" as="geometry" />
        </mxCell>
        <mxCell id="Ay7jssowPQZ8ljbJawrN-21" value="" style="rounded=1;whiteSpace=wrap;html=1;" parent="1" vertex="1">
          <mxGeometry x="460" y="1052" width="170" height="90" as="geometry" />
        </mxCell>
        <mxCell id="Ay7jssowPQZ8ljbJawrN-12" value="" style="rounded=1;whiteSpace=wrap;html=1;" parent="1" vertex="1">
          <mxGeometry x="460" y="927" width="170" height="90" as="geometry" />
        </mxCell>
        <mxCell id="Ay7jssowPQZ8ljbJawrN-1" value="" style="rounded=1;whiteSpace=wrap;html=1;" parent="1" vertex="1">
          <mxGeometry x="290" y="982" width="120" height="60" as="geometry" />
        </mxCell>
        <mxCell id="Ay7jssowPQZ8ljbJawrN-2" value="" style="rounded=1;whiteSpace=wrap;html=1;" parent="1" vertex="1">
          <mxGeometry x="296" y="988" width="120" height="60" as="geometry" />
        </mxCell>
        <mxCell id="Ay7jssowPQZ8ljbJawrN-3" value="" style="rounded=1;whiteSpace=wrap;html=1;" parent="1" vertex="1">
          <mxGeometry x="302" y="994" width="120" height="60" as="geometry" />
        </mxCell>
        <mxCell id="Ay7jssowPQZ8ljbJawrN-4" value="" style="rounded=1;whiteSpace=wrap;html=1;" parent="1" vertex="1">
          <mxGeometry x="308" y="1000" width="120" height="60" as="geometry" />
        </mxCell>
        <mxCell id="Ay7jssowPQZ8ljbJawrN-5" value="&lt;font face=&quot;Garamond&quot; style=&quot;font-size: 16px&quot;&gt;PORTS&lt;/font&gt;" style="text;html=1;strokeColor=none;fillColor=none;align=center;verticalAlign=middle;whiteSpace=wrap;rounded=0;fontSize=23;" parent="1" vertex="1">
          <mxGeometry x="348" y="1020" width="40" height="20" as="geometry" />
        </mxCell>
        <mxCell id="Ay7jssowPQZ8ljbJawrN-11" value="&lt;p style=&quot;font-size: 16px&quot;&gt;&lt;font face=&quot;Garamond&quot; style=&quot;font-size: 16px&quot;&gt;&lt;span&gt;FAST LOOKUP&lt;/span&gt;&lt;br&gt;&lt;font style=&quot;font-size: 16px&quot;&gt;ENGINE&lt;/font&gt;&lt;/font&gt;&lt;/p&gt;" style="text;html=1;strokeColor=none;fillColor=none;align=center;verticalAlign=middle;whiteSpace=wrap;rounded=0;fontSize=23;" parent="1" vertex="1">
          <mxGeometry x="485" y="952" width="120" height="40" as="geometry" />
        </mxCell>
        <mxCell id="Ay7jssowPQZ8ljbJawrN-14" value="&lt;p style=&quot;font-size: 16px&quot;&gt;&lt;font face=&quot;Garamond&quot; style=&quot;font-size: 16px&quot;&gt;&lt;span&gt;FULL LOOKUP&lt;/span&gt;&lt;br&gt;&lt;font style=&quot;font-size: 16px&quot;&gt;ENGINE&lt;/font&gt;&lt;/font&gt;&lt;/p&gt;" style="text;html=1;strokeColor=none;fillColor=none;align=center;verticalAlign=middle;whiteSpace=wrap;rounded=0;fontSize=23;" parent="1" vertex="1">
          <mxGeometry x="485" y="1077" width="120" height="40" as="geometry" />
        </mxCell>
        <mxCell id="Ay7jssowPQZ8ljbJawrN-16" value="&lt;font face=&quot;Garamond&quot; style=&quot;font-size: 16px&quot;&gt;VLAN TABLE&lt;/font&gt;" style="shape=datastore;whiteSpace=wrap;html=1;" parent="1" vertex="1">
          <mxGeometry x="660" y="952" width="70" height="70" as="geometry" />
        </mxCell>
        <mxCell id="Ay7jssowPQZ8ljbJawrN-19" value="&lt;font face=&quot;Garamond&quot; style=&quot;font-size: 16px&quot;&gt;VLAN TABLE&lt;/font&gt;" style="shape=datastore;whiteSpace=wrap;html=1;" parent="1" vertex="1">
          <mxGeometry x="660" y="1032" width="70" height="70" as="geometry" />
        </mxCell>
        <mxCell id="Ay7jssowPQZ8ljbJawrN-20" value="&lt;font face=&quot;Garamond&quot; style=&quot;font-size: 16px&quot;&gt;HASH TABLE&lt;/font&gt;" style="shape=datastore;whiteSpace=wrap;html=1;" parent="1" vertex="1">
          <mxGeometry x="760" y="1052" width="70" height="70" as="geometry" />
        </mxCell>
        <mxCell id="Ay7jssowPQZ8ljbJawrN-24" value="&lt;font face=&quot;Garamond&quot; size=&quot;1&quot;&gt;&lt;b style=&quot;font-size: 19px&quot;&gt;RTU&lt;/b&gt;&lt;/font&gt;" style="text;html=1;strokeColor=none;fillColor=none;align=center;verticalAlign=middle;whiteSpace=wrap;rounded=0;dashed=1;" parent="1" vertex="1">
          <mxGeometry x="302" y="904" width="40" height="20" as="geometry" />
        </mxCell>
        <mxCell id="Ay7jssowPQZ8ljbJawrN-36" value="" style="rounded=1;whiteSpace=wrap;html=1;strokeColor=#82b366;dashed=1;fillColor=#d5e8d4;" parent="1" vertex="1">
          <mxGeometry x="280" y="780" width="560" height="90" as="geometry" />
        </mxCell>
        <mxCell id="Ay7jssowPQZ8ljbJawrN-48" value="&lt;font face=&quot;Garamond&quot; style=&quot;font-size: 16px&quot;&gt;TRU TABLE&lt;/font&gt;" style="shape=datastore;whiteSpace=wrap;html=1;" parent="1" vertex="1">
          <mxGeometry x="728" y="790" width="70" height="70" as="geometry" />
        </mxCell>
        <mxCell id="Ay7jssowPQZ8ljbJawrN-49" value="&lt;font face=&quot;Garamond&quot; size=&quot;1&quot;&gt;&lt;b style=&quot;font-size: 19px&quot;&gt;TRU&lt;/b&gt;&lt;/font&gt;" style="text;html=1;strokeColor=none;fillColor=none;align=center;verticalAlign=middle;whiteSpace=wrap;rounded=0;dashed=1;" parent="1" vertex="1">
          <mxGeometry x="302" y="785" width="40" height="20" as="geometry" />
        </mxCell>
        <mxCell id="Ay7jssowPQZ8ljbJawrN-57" value="" style="rounded=1;whiteSpace=wrap;html=1;strokeColor=#9673a6;dashed=1;fillColor=#e1d5e7;" parent="1" vertex="1">
          <mxGeometry x="280" y="1190" width="560" height="90" as="geometry" />
        </mxCell>
        <mxCell id="Ay7jssowPQZ8ljbJawrN-59" value="&lt;font face=&quot;Garamond&quot; size=&quot;1&quot;&gt;&lt;b style=&quot;font-size: 19px&quot;&gt;SWCORE&lt;/b&gt;&lt;/font&gt;" style="text;html=1;strokeColor=none;fillColor=none;align=center;verticalAlign=middle;whiteSpace=wrap;rounded=0;dashed=1;" parent="1" vertex="1">
          <mxGeometry x="320" y="1195" width="39" height="20" as="geometry" />
        </mxCell>
        <mxCell id="Ay7jssowPQZ8ljbJawrN-75" value="&lt;font face=&quot;Garamond&quot; size=&quot;1&quot;&gt;&lt;b style=&quot;font-size: 22px&quot;&gt;HARDWARE&lt;/b&gt;&lt;/font&gt;" style="text;html=1;strokeColor=none;fillColor=none;align=center;verticalAlign=middle;whiteSpace=wrap;rounded=0;dashed=1;" parent="1" vertex="1">
          <mxGeometry x="172" y="770" width="40" height="20" as="geometry" />
        </mxCell>
        <mxCell id="Ay7jssowPQZ8ljbJawrN-77" value="&lt;font face=&quot;Garamond&quot; size=&quot;1&quot;&gt;&lt;b style=&quot;font-size: 22px&quot;&gt;SOFTWARE&lt;br&gt;&lt;/b&gt;&lt;/font&gt;" style="text;html=1;strokeColor=none;fillColor=none;align=center;verticalAlign=middle;whiteSpace=wrap;rounded=0;dashed=1;" parent="1" vertex="1">
          <mxGeometry x="940" y="770" width="40" height="20" as="geometry" />
        </mxCell>
        <mxCell id="Ay7jssowPQZ8ljbJawrN-84" value="" style="endArrow=classic;html=1;strokeWidth=1;fontFamily=Garamond;fontSize=20;strokeColor=#666666;" parent="1" edge="1">
          <mxGeometry width="50" height="50" relative="1" as="geometry">
            <mxPoint x="900" y="1001" as="sourcePoint" />
            <mxPoint x="730" y="1001" as="targetPoint" />
          </mxGeometry>
        </mxCell>
        <mxCell id="Ay7jssowPQZ8ljbJawrN-85" value="" style="endArrow=classic;html=1;strokeWidth=1;fontFamily=Garamond;fontSize=20;exitX=0.006;exitY=0.591;exitDx=0;exitDy=0;exitPerimeter=0;entryX=1.002;entryY=0.198;entryDx=0;entryDy=0;entryPerimeter=0;strokeColor=#666666;" parent="1" source="Ay7jssowPQZ8ljbJawrN-83" target="Ay7jssowPQZ8ljbJawrN-19" edge="1">
          <mxGeometry width="50" height="50" relative="1" as="geometry">
            <mxPoint x="720" y="1070" as="sourcePoint" />
            <mxPoint x="770" y="1020" as="targetPoint" />
          </mxGeometry>
        </mxCell>
        <mxCell id="Ay7jssowPQZ8ljbJawrN-86" value="" style="endArrow=classic;html=1;strokeWidth=1;fontFamily=Garamond;fontSize=20;exitX=-0.006;exitY=0.865;exitDx=0;exitDy=0;exitPerimeter=0;entryX=1.001;entryY=0.442;entryDx=0;entryDy=0;entryPerimeter=0;strokeColor=#666666;" parent="1" source="Ay7jssowPQZ8ljbJawrN-83" target="Ay7jssowPQZ8ljbJawrN-20" edge="1">
          <mxGeometry width="50" height="50" relative="1" as="geometry">
            <mxPoint x="670" y="1040" as="sourcePoint" />
            <mxPoint x="830" y="1087" as="targetPoint" />
          </mxGeometry>
        </mxCell>
        <mxCell id="Ay7jssowPQZ8ljbJawrN-87" value="" style="endArrow=classic;html=1;strokeWidth=2;fontFamily=Garamond;fontSize=20;exitX=1.007;exitY=0.881;exitDx=0;exitDy=0;exitPerimeter=0;entryX=0.5;entryY=1;entryDx=0;entryDy=0;strokeColor=#6c8ebf;fillColor=#dae8fc;" parent="1" source="Ay7jssowPQZ8ljbJawrN-21" target="Ay7jssowPQZ8ljbJawrN-83" edge="1">
          <mxGeometry width="50" height="50" relative="1" as="geometry">
            <mxPoint x="570" y="1060" as="sourcePoint" />
            <mxPoint x="620" y="1010" as="targetPoint" />
            <Array as="points">
              <mxPoint x="960" y="1131" />
            </Array>
          </mxGeometry>
        </mxCell>
        <mxCell id="Ay7jssowPQZ8ljbJawrN-90" value="&lt;font style=&quot;font-size: 14px&quot;&gt;FILTERING DATABASE CONFIGURATION&lt;/font&gt;" style="text;html=1;strokeColor=none;fillColor=none;align=center;verticalAlign=middle;whiteSpace=wrap;rounded=0;fontFamily=Garamond;fontSize=16;" parent="1" vertex="1">
          <mxGeometry x="940" y="1023" width="40" height="20" as="geometry" />
        </mxCell>
        <mxCell id="Ay7jssowPQZ8ljbJawrN-91" value="" style="endArrow=classic;html=1;strokeWidth=1;fontFamily=Garamond;fontSize=20;strokeColor=#666666;entryX=1;entryY=0.5;entryDx=0;entryDy=0;" parent="1" target="Ay7jssowPQZ8ljbJawrN-48" edge="1">
          <mxGeometry width="50" height="50" relative="1" as="geometry">
            <mxPoint x="900" y="988" as="sourcePoint" />
            <mxPoint x="730" y="988" as="targetPoint" />
            <Array as="points">
              <mxPoint x="850" y="988" />
              <mxPoint x="850" y="825" />
            </Array>
          </mxGeometry>
        </mxCell>
        <mxCell id="Ay7jssowPQZ8ljbJawrN-92" value="" style="endArrow=classic;html=1;strokeWidth=2;fontFamily=Garamond;fontSize=20;exitX=0.5;exitY=0;exitDx=0;exitDy=0;entryX=0.286;entryY=0.676;entryDx=0;entryDy=0;entryPerimeter=0;strokeColor=#6c8ebf;fillColor=#dae8fc;" parent="1" source="Ay7jssowPQZ8ljbJawrN-83" edge="1">
          <mxGeometry width="50" height="50" relative="1" as="geometry">
            <mxPoint x="928.8499999999999" y="942.0020000000001" as="sourcePoint" />
            <mxPoint x="630" y="942.14" as="targetPoint" />
            <Array as="points">
              <mxPoint x="960" y="942" />
            </Array>
          </mxGeometry>
        </mxCell>
        <mxCell id="Ay7jssowPQZ8ljbJawrN-96" value="&lt;font style=&quot;font-size: 14px&quot;&gt;critical traffic configuration&lt;/font&gt;" style="text;html=1;strokeColor=none;fillColor=none;align=center;verticalAlign=middle;whiteSpace=wrap;rounded=0;fontFamily=Garamond;fontSize=12;" parent="1" vertex="1">
          <mxGeometry x="893" y="914" width="90" height="16" as="geometry" />
        </mxCell>
        <mxCell id="Ay7jssowPQZ8ljbJawrN-98" value="&lt;font style=&quot;font-size: 14px&quot;&gt;learning process&lt;/font&gt;" style="text;html=1;strokeColor=none;fillColor=none;align=center;verticalAlign=middle;whiteSpace=wrap;rounded=0;fontFamily=Garamond;fontSize=12;" parent="1" vertex="1">
          <mxGeometry x="896" y="1132" width="100" height="20" as="geometry" />
        </mxCell>
        <mxCell id="Ay7jssowPQZ8ljbJawrN-99" value="" style="endArrow=classic;html=1;strokeWidth=1;fontFamily=Garamond;fontSize=12;exitX=0.017;exitY=0.847;exitDx=0;exitDy=0;exitPerimeter=0;entryX=1.007;entryY=0.675;entryDx=0;entryDy=0;entryPerimeter=0;" parent="1" edge="1">
          <mxGeometry width="50" height="50" relative="1" as="geometry">
            <mxPoint x="760.1899999999998" y="1108.29" as="sourcePoint" />
            <mxPoint x="630.1899999999998" y="1109.7499999999998" as="targetPoint" />
          </mxGeometry>
        </mxCell>
        <mxCell id="Ay7jssowPQZ8ljbJawrN-100" value="" style="endArrow=classic;html=1;strokeColor=#000000;strokeWidth=1;fontFamily=Garamond;fontSize=12;exitX=0.01;exitY=0.84;exitDx=0;exitDy=0;exitPerimeter=0;entryX=1.004;entryY=0.437;entryDx=0;entryDy=0;entryPerimeter=0;" parent="1" edge="1">
          <mxGeometry width="50" height="50" relative="1" as="geometry">
            <mxPoint x="659.6999999999999" y="1079.8" as="sourcePoint" />
            <mxPoint x="629.6800000000001" y="1080.33" as="targetPoint" />
          </mxGeometry>
        </mxCell>
        <mxCell id="Ay7jssowPQZ8ljbJawrN-101" value="" style="endArrow=classic;html=1;strokeColor=#000000;strokeWidth=1;fontFamily=Garamond;fontSize=12;exitX=0.01;exitY=0.84;exitDx=0;exitDy=0;exitPerimeter=0;entryX=1.004;entryY=0.437;entryDx=0;entryDy=0;entryPerimeter=0;" parent="1" edge="1">
          <mxGeometry width="50" height="50" relative="1" as="geometry">
            <mxPoint x="659.9999999999995" y="992" as="sourcePoint" />
            <mxPoint x="629.98" y="992.53" as="targetPoint" />
          </mxGeometry>
        </mxCell>
        <mxCell id="Ay7jssowPQZ8ljbJawrN-103" value="" style="shape=flexArrow;endArrow=block;html=1;strokeColor=#000000;strokeWidth=1;fontFamily=Garamond;fontSize=12;entryX=0;entryY=0.5;entryDx=0;entryDy=0;width=4;endFill=0;endSize=6;startSize=6;" parent="1" target="Ay7jssowPQZ8ljbJawrN-12" edge="1">
          <mxGeometry width="50" height="50" relative="1" as="geometry">
            <mxPoint x="380" y="982" as="sourcePoint" />
            <mxPoint x="490" y="1010" as="targetPoint" />
            <Array as="points">
              <mxPoint x="380" y="972" />
            </Array>
          </mxGeometry>
        </mxCell>
        <mxCell id="Ay7jssowPQZ8ljbJawrN-104" value="" style="shape=flexArrow;endArrow=classic;html=1;strokeColor=#000000;strokeWidth=1;fontFamily=Garamond;fontSize=12;exitX=0;exitY=0.25;exitDx=0;exitDy=0;entryX=0.562;entryY=-0.02;entryDx=0;entryDy=0;entryPerimeter=0;width=4;" parent="1" source="Ay7jssowPQZ8ljbJawrN-12" target="Ay7jssowPQZ8ljbJawrN-1" edge="1">
          <mxGeometry width="50" height="50" relative="1" as="geometry">
            <mxPoint x="450" y="1050" as="sourcePoint" />
            <mxPoint x="500" y="1000" as="targetPoint" />
            <Array as="points">
              <mxPoint x="357" y="950" />
            </Array>
          </mxGeometry>
        </mxCell>
        <mxCell id="Ay7jssowPQZ8ljbJawrN-105" value="" style="shape=flexArrow;endArrow=block;html=1;strokeColor=#000000;strokeWidth=1;fontFamily=Garamond;fontSize=12;width=4;endFill=0;endSize=6;startSize=6;entryX=-0.001;entryY=0.442;entryDx=0;entryDy=0;entryPerimeter=0;" parent="1" edge="1">
          <mxGeometry width="50" height="50" relative="1" as="geometry">
            <mxPoint x="380" y="1060" as="sourcePoint" />
            <mxPoint x="459.83000000000004" y="1092.78" as="targetPoint" />
            <Array as="points">
              <mxPoint x="380" y="1093" />
            </Array>
          </mxGeometry>
        </mxCell>
        <mxCell id="Ay7jssowPQZ8ljbJawrN-106" value="" style="shape=flexArrow;endArrow=classic;html=1;strokeColor=#000000;strokeWidth=1;fontFamily=Garamond;fontSize=12;exitX=-0.013;exitY=0.706;exitDx=0;exitDy=0;exitPerimeter=0;width=4;entryX=0.388;entryY=0.998;entryDx=0;entryDy=0;entryPerimeter=0;" parent="1" edge="1">
          <mxGeometry width="50" height="50" relative="1" as="geometry">
            <mxPoint x="459.78999999999996" y="1115.54" as="sourcePoint" />
            <mxPoint x="356.56000000000006" y="1059.88" as="targetPoint" />
            <Array as="points">
              <mxPoint x="357" y="1116" />
            </Array>
          </mxGeometry>
        </mxCell>
        <mxCell id="Ay7jssowPQZ8ljbJawrN-107" value="&lt;font style=&quot;font-size: 14px&quot;&gt;response&lt;/font&gt;" style="text;html=1;strokeColor=none;fillColor=none;align=center;verticalAlign=middle;whiteSpace=wrap;rounded=0;fontFamily=Garamond;fontSize=12;" parent="1" vertex="1">
          <mxGeometry x="348" y="927" width="100" height="20" as="geometry" />
        </mxCell>
        <mxCell id="Ay7jssowPQZ8ljbJawrN-108" value="&lt;font style=&quot;font-size: 14px&quot;&gt;request&lt;/font&gt;" style="text;html=1;strokeColor=none;fillColor=none;align=center;verticalAlign=middle;whiteSpace=wrap;rounded=0;fontFamily=Garamond;fontSize=12;" parent="1" vertex="1">
          <mxGeometry x="360" y="952" width="100" height="20" as="geometry" />
        </mxCell>
        <mxCell id="Ay7jssowPQZ8ljbJawrN-109" value="&lt;font style=&quot;font-size: 14px&quot;&gt;request&lt;/font&gt;" style="text;html=1;strokeColor=none;fillColor=none;align=center;verticalAlign=middle;whiteSpace=wrap;rounded=0;fontFamily=Garamond;fontSize=12;" parent="1" vertex="1">
          <mxGeometry x="360" y="1070" width="100" height="20" as="geometry" />
        </mxCell>
        <mxCell id="Ay7jssowPQZ8ljbJawrN-110" value="&lt;font style=&quot;font-size: 14px&quot;&gt;response&lt;/font&gt;" style="text;html=1;strokeColor=none;fillColor=none;align=center;verticalAlign=middle;whiteSpace=wrap;rounded=0;fontFamily=Garamond;fontSize=12;" parent="1" vertex="1">
          <mxGeometry x="348" y="1093" width="100" height="20" as="geometry" />
        </mxCell>
        <mxCell id="Ay7jssowPQZ8ljbJawrN-111" value="" style="endArrow=classic;html=1;strokeColor=#000000;strokeWidth=1;fontFamily=Garamond;fontSize=12;exitX=0.25;exitY=0;exitDx=0;exitDy=0;entryX=0.397;entryY=0.667;entryDx=0;entryDy=0;entryPerimeter=0;" parent="1" source="Ay7jssowPQZ8ljbJawrN-12" target="Ay7jssowPQZ8ljbJawrN-36" edge="1">
          <mxGeometry width="50" height="50" relative="1" as="geometry">
            <mxPoint x="490" y="1000" as="sourcePoint" />
            <mxPoint x="540" y="950" as="targetPoint" />
          </mxGeometry>
        </mxCell>
        <mxCell id="Ay7jssowPQZ8ljbJawrN-112" value="" style="endArrow=classic;html=1;strokeColor=#000000;strokeWidth=1;fontFamily=Garamond;fontSize=12;exitX=0.25;exitY=0;exitDx=0;exitDy=0;entryX=0.397;entryY=0.667;entryDx=0;entryDy=0;entryPerimeter=0;" parent="1" edge="1">
          <mxGeometry width="50" height="50" relative="1" as="geometry">
            <mxPoint x="580.0000000000002" y="840.0300000000002" as="sourcePoint" />
            <mxPoint x="580.1800000000001" y="927" as="targetPoint" />
          </mxGeometry>
        </mxCell>
        <mxCell id="Ay7jssowPQZ8ljbJawrN-114" value="&lt;font style=&quot;font-size: 14px&quot;&gt;TRU request&lt;br&gt;(VLAN ID, port ID)&lt;br&gt;&lt;/font&gt;" style="text;html=1;strokeColor=none;fillColor=none;align=center;verticalAlign=middle;whiteSpace=wrap;rounded=0;fontFamily=Garamond;fontSize=12;" parent="1" vertex="1">
          <mxGeometry x="376" y="840" width="132" height="20" as="geometry" />
        </mxCell>
        <mxCell id="Ay7jssowPQZ8ljbJawrN-115" value="&lt;font style=&quot;font-size: 14px&quot;&gt;TRU response&lt;br&gt;(RX mask, TX mask)&lt;br&gt;&lt;/font&gt;" style="text;html=1;strokeColor=none;fillColor=none;align=center;verticalAlign=middle;whiteSpace=wrap;rounded=0;fontFamily=Garamond;fontSize=12;" parent="1" vertex="1">
          <mxGeometry x="579" y="840" width="132" height="20" as="geometry" />
        </mxCell>
        <mxCell id="Ay7jssowPQZ8ljbJawrN-116" value="" style="shape=flexArrow;endArrow=classic;startArrow=classic;html=1;strokeColor=#000000;strokeWidth=1;fontFamily=Garamond;fontSize=12;exitX=0;exitY=0.5;exitDx=0;exitDy=0;width=7;" parent="1" source="Ay7jssowPQZ8ljbJawrN-57" edge="1">
          <mxGeometry width="50" height="50" relative="1" as="geometry">
            <mxPoint x="490" y="1160" as="sourcePoint" />
            <mxPoint x="171" y="1062" as="targetPoint" />
            <Array as="points">
              <mxPoint x="171" y="1235" />
            </Array>
          </mxGeometry>
        </mxCell>
        <mxCell id="Ay7jssowPQZ8ljbJawrN-117" value="&lt;font style=&quot;font-size: 14px&quot;&gt;frames&lt;/font&gt;" style="text;html=1;strokeColor=none;fillColor=none;align=center;verticalAlign=middle;whiteSpace=wrap;rounded=0;fontFamily=Garamond;fontSize=12;" parent="1" vertex="1">
          <mxGeometry x="159" y="1205" width="100" height="20" as="geometry" />
        </mxCell>
        <mxCell id="Ay7jssowPQZ8ljbJawrN-118" value="" style="shape=flexArrow;endArrow=classic;html=1;strokeColor=#000000;strokeWidth=1;fontFamily=Garamond;fontSize=12;exitX=0.193;exitY=1;exitDx=0;exitDy=0;exitPerimeter=0;entryX=0.321;entryY=0.556;entryDx=0;entryDy=0;entryPerimeter=0;width=4;" parent="1" source="Ay7jssowPQZ8ljbJawrN-4" target="Ay7jssowPQZ8ljbJawrN-57" edge="1">
          <mxGeometry width="50" height="50" relative="1" as="geometry">
            <mxPoint x="490" y="1160" as="sourcePoint" />
            <mxPoint x="540" y="1110" as="targetPoint" />
            <Array as="points">
              <mxPoint x="331" y="1170" />
              <mxPoint x="460" y="1170" />
            </Array>
          </mxGeometry>
        </mxCell>
        <mxCell id="Ay7jssowPQZ8ljbJawrN-120" value="&lt;font style=&quot;font-size: 14px&quot;&gt;RTU response&lt;br&gt;(port mask, frame priority)&lt;br&gt;&lt;/font&gt;" style="text;html=1;strokeColor=none;fillColor=none;align=center;verticalAlign=middle;whiteSpace=wrap;rounded=0;fontFamily=Garamond;fontSize=12;" parent="1" vertex="1">
          <mxGeometry x="470" y="1210" width="160" height="20" as="geometry" />
        </mxCell>
        <mxCell id="Ay7jssowPQZ8ljbJawrN-121" value="" style="shape=flexArrow;endArrow=classic;html=1;strokeColor=#000000;strokeWidth=1;fontFamily=Garamond;fontSize=12;exitX=0.25;exitY=0;exitDx=0;exitDy=0;entryX=0;entryY=0.5;entryDx=0;entryDy=0;width=7;" parent="1" target="Ay7jssowPQZ8ljbJawrN-36" edge="1">
          <mxGeometry width="50" height="50" relative="1" as="geometry">
            <mxPoint x="112.5" y="982" as="sourcePoint" />
            <mxPoint x="410" y="940" as="targetPoint" />
            <Array as="points">
              <mxPoint x="113" y="825" />
            </Array>
          </mxGeometry>
        </mxCell>
        <mxCell id="Ay7jssowPQZ8ljbJawrN-122" value="" style="shape=flexArrow;endArrow=classic;html=1;strokeColor=#000000;strokeWidth=1;fontFamily=Garamond;fontSize=12;exitX=0;exitY=0.75;exitDx=0;exitDy=0;entryX=0.75;entryY=0;entryDx=0;entryDy=0;width=7;" parent="1" source="Ay7jssowPQZ8ljbJawrN-36" edge="1">
          <mxGeometry width="50" height="50" relative="1" as="geometry">
            <mxPoint x="360" y="990" as="sourcePoint" />
            <mxPoint x="197.5" y="982" as="targetPoint" />
            <Array as="points">
              <mxPoint x="198" y="848" />
            </Array>
          </mxGeometry>
        </mxCell>
        <mxCell id="Ay7jssowPQZ8ljbJawrN-123" value="&lt;font style=&quot;font-size: 14px&quot;&gt;on/off &lt;br&gt;TX frame&lt;/font&gt;" style="text;html=1;strokeColor=none;fillColor=none;align=center;verticalAlign=middle;whiteSpace=wrap;rounded=0;fontFamily=Garamond;fontSize=12;" parent="1" vertex="1">
          <mxGeometry x="187" y="880" width="100" height="20" as="geometry" />
        </mxCell>
        <mxCell id="Ay7jssowPQZ8ljbJawrN-124" value="&lt;font style=&quot;font-size: 14px&quot;&gt;up/down&lt;br&gt;RX frame&lt;/font&gt;" style="text;html=1;strokeColor=none;fillColor=none;align=center;verticalAlign=middle;whiteSpace=wrap;rounded=0;fontFamily=Garamond;fontSize=12;" parent="1" vertex="1">
          <mxGeometry x="100" y="880" width="100" height="20" as="geometry" />
        </mxCell>
        <mxCell id="Ay7jssowPQZ8ljbJawrN-126" value="" style="rounded=1;whiteSpace=wrap;html=1;" parent="1" vertex="1">
          <mxGeometry x="90" y="982" width="120" height="60" as="geometry" />
        </mxCell>
        <mxCell id="Ay7jssowPQZ8ljbJawrN-127" value="" style="rounded=1;whiteSpace=wrap;html=1;" parent="1" vertex="1">
          <mxGeometry x="96" y="988" width="120" height="60" as="geometry" />
        </mxCell>
        <mxCell id="Ay7jssowPQZ8ljbJawrN-128" value="" style="rounded=1;whiteSpace=wrap;html=1;" parent="1" vertex="1">
          <mxGeometry x="102" y="994" width="120" height="60" as="geometry" />
        </mxCell>
        <mxCell id="Ay7jssowPQZ8ljbJawrN-129" value="" style="rounded=1;whiteSpace=wrap;html=1;" parent="1" vertex="1">
          <mxGeometry x="108" y="1000" width="120" height="60" as="geometry" />
        </mxCell>
        <mxCell id="Ay7jssowPQZ8ljbJawrN-130" value="&lt;font face=&quot;Garamond&quot; size=&quot;1&quot;&gt;&lt;b style=&quot;font-size: 19px&quot;&gt;ENDPOINTS&lt;/b&gt;&lt;/font&gt;" style="text;html=1;strokeColor=none;fillColor=none;align=center;verticalAlign=middle;whiteSpace=wrap;rounded=0;fontSize=23;" parent="1" vertex="1">
          <mxGeometry x="148" y="1020" width="40" height="20" as="geometry" />
        </mxCell>
        <mxCell id="Ay7jssowPQZ8ljbJawrN-138" value="" style="rounded=0;whiteSpace=wrap;html=1;fillColor=none;gradientColor=none;fontFamily=Garamond;fontSize=12;strokeColor=none;" parent="1" vertex="1">
          <mxGeometry x="80" y="700" width="950" height="630" as="geometry" />
        </mxCell>
        <mxCell id="7QTN7zYtSt6TCoKizRhF-1" value="" style="shape=flexArrow;endArrow=classic;html=1;entryX=0.221;entryY=0.524;entryDx=0;entryDy=0;entryPerimeter=0;startSize=6;endSize=6;strokeWidth=1;width=4;" edge="1" parent="1" target="Ay7jssowPQZ8ljbJawrN-138">
          <mxGeometry width="50" height="50" relative="1" as="geometry">
            <mxPoint x="228" y="1030" as="sourcePoint" />
            <mxPoint x="590" y="1100" as="targetPoint" />
          </mxGeometry>
        </mxCell>
        <mxCell id="7QTN7zYtSt6TCoKizRhF-2" value="&lt;font face=&quot;Garamond&quot; style=&quot;font-size: 14px&quot;&gt;RTU request&lt;/font&gt;" style="text;html=1;strokeColor=none;fillColor=none;align=center;verticalAlign=middle;whiteSpace=wrap;rounded=0;" vertex="1" parent="1">
          <mxGeometry x="228" y="985" width="58" height="32" as="geometry" />
        </mxCell>
      </root>
    </mxGraphModel>
  </diagram>
</mxfile>
